<?xml version="1.0" encoding="utf-8"?>
<!-- Generator: Adobe Illustrator 22.0.1, SVG Export Plug-In . SVG Version: 6.00 Build 0)  -->
<svg version="1.1" id="Layer_1" xmlns="http://www.w3.org/2000/svg" xmlns:xlink="http://www.w3.org/1999/xlink" x="0px" y="0px"
	 viewBox="0 0 124 38" style="enable-background:new 0 0 124 38;" xml:space="preserve">
<style type="text/css">
	.st0{fill:#FB3721;}
</style>
<title>Group</title>
<desc>Created with Sketch.</desc>
<g id="Symbols">
	<g id="Element-_x2F_-Menu" transform="translate(-136.000000, -56.000000)">
		<g id="Group" transform="translate(136.000000, 56.000000)">
			<g id="Logo-_x2F_-Rood">
				<path id="Fideo-logo-ROOD" class="st0" d="M94.6,19c0-2.9-2.4-5.2-5.3-5.2c-3,0-5.3,2.3-5.3,5.2c0,2.8,2.4,5.1,5.3,5.1
					C92.3,24.1,94.6,21.9,94.6,19 M95.2,26H84v10.9c0,0,0,0.8,0.8,0.8h10.4c0,0,0.8,0,0.8-0.8V26.8C96,26.8,96,26,95.2,26 M95.2,0.4
					H84.8c0,0-0.8,0-0.8,0.8V12h11.1c0,0,0.8,0,0.8-0.8V1.2C96,1.2,96,0.4,95.2,0.4 M70.9,26.8v10.1c0,0,0,0.8,0.8,0.8h10.4
					c0,0,0.8,0,0.8-0.8V26H71.7C71.7,26,70.9,26,70.9,26.8 M70.9,14v10.1c0,0,0,0.8,0.8,0.8h11.1V13.2H71.7
					C71.7,13.2,70.9,13.2,70.9,14 M82.1,0.4H71.7c0,0-0.8,0-0.8,0.8v10.1c0,0,0,0.8,0.8,0.8h11.1V1.2C82.9,1.2,82.9,0.4,82.1,0.4
					 M18.4,13.9c-3,0-5.3,2.3-5.3,5.2c0,2.8,2.4,5.1,5.3,5.1c2.9,0,5.3-2.3,5.3-5.1C23.7,16.1,21.3,13.8,18.4,13.9 M11.1,26H0.8
					c0,0-0.8,0-0.8,0.8v4.7C0,35.2,1.9,38,6,38s6-2.8,6-6.6v-4.7C11.9,26.8,11.9,26,11.1,26 M0,14v10.1c0,0,0,0.8,0.8,0.8h10.4
					c0,0,0.8,0,0.8-0.8V13.2H0.8C0.8,13.2,0,13.2,0,14 M24.3,0.4H13.1V12h11.1c0,0,0.8,0,0.8-0.8V1.2C25.1,1.2,25.1,0.4,24.3,0.4
					 M0,1.2v10.1c0,0,0,0.8,0.8,0.8h11.1V0.4H0.8C0.8,0.4,0,0.4,0,1.2 M34,0c-4.1,0-6,2.8-6,6.6v4.7c0,0,0,0.8,0.8,0.8h10.4
					c0,0,0.8,0,0.8-0.8V6.6C40,2.8,38.1,0,34,0 M39.2,26H28.8c0,0-0.8,0-0.8,0.8v4.7c0,3.8,1.9,6.6,6,6.6c4.1,0,6-2.8,6-6.6v-4.7
					C40,26.8,40,26,39.2,26 M39.2,13.2H28.8c0,0-0.8,0-0.8,0.8v10.1c0,0,0,0.8,0.8,0.8h10.4c0,0,0.8,0,0.8-0.8V14
					C40,14,40,13.2,39.2,13.2 M68,24.1V14c0,0,0-0.8-0.8-0.8H56v11.6h11.1C67.2,24.8,68,24.8,68,24.1 M56.8,0.4c0,0-0.8,0-0.8,0.8
					L56,12h11.1c0,0,0.8,0,0.8-0.8C68,6.6,63.5,0.4,56.8,0.4 M67.2,26H56l0,10.9c0,0.8,0.8,0.8,0.8,0.8c6.6,0,11.1-6.2,11.1-10.9
					C68,26,67.2,26,67.2,26 M42.9,26.8v10.1c0,0,0,0.8,0.8,0.8h10.4c0,0,0.8,0,0.8-0.8V26H43.7C43.7,26,42.9,26,42.9,26.8 M42.9,14
					v10.1c0,0,0,0.8,0.8,0.8h11.1V13.2H43.7C43.7,13.2,42.9,13.2,42.9,14 M54.1,0.4H43.7c0,0-0.8,0-0.8,0.8v10.1c0,0,0,0.8,0.8,0.8
					h11.1V1.2C54.8,1.2,54.8,0.4,54.1,0.4 M123.2,26h-11.2l0,10.9c0,0.8,0.8,0.8,0.8,0.8c6.6,0,11.1-6.2,11.1-10.9
					C124,26,123.2,26,123.2,26 M98.9,26.8c0,4.6,4.5,10.9,11.1,10.9c0,0,0.8,0,0.8-0.8l0-10.9H99.7C99.7,26,98.9,26,98.9,26.8
					 M110.1,0.4c-6.6,0-11.1,6.2-11.1,10.9c0,0.7,0.8,0.8,0.8,0.8h11.1l0-10.9C110.9,0.4,110.1,0.4,110.1,0.4 M124,11.3
					c0-4.6-4.5-10.9-11.1-10.9c0,0-0.8,0-0.8,0.8l0,10.9h11.2C123.2,12,124,12,124,11.3 M124,24.1V14c0,0,0-0.8-0.8-0.8h-11.1v11.6
					h11.1C123.2,24.8,124,24.8,124,24.1 M99.7,13.2h11.1v11.6H99.7c-0.8,0-0.8-0.8-0.8-0.8V14C98.9,13.2,99.7,13.2,99.7,13.2"/>
			</g>
		</g>
	</g>
</g>
</svg>
